// Jest Snapshot v1, https://goo.gl/fbAQLP

exports[`components/TextInput should render correctly 1`] = `ReactWrapper {}`;

exports[`components/TextInput should render correctly with width 1`] = `ReactWrapper {}`;
