// Jest Snapshot v1, https://goo.gl/fbAQLP

exports[`components/HeartbeatLoader should render correctly 1`] = `ReactWrapper {}`;

exports[`components/HeartbeatLoader should render correctly with size 1`] = `ReactWrapper {}`;
